{
  "totalItems": 100,
  "totalPages": 10,
  "page": 1,
  "items": [
    "<?xml version=\"1.0\" encoding=\"gbk\"?><DOCUMENT><docid><\/docid><item> <key><![CDATA[http://mp.weixin.qq.com/]]><\/key><tplid><![CDATA[555]]><\/tplid><classid>11002601<\/classid> <display> <docid>ab735a258a90e8e1-6bee54fcbd896b2a-6a60b839d087b9e8d86889e902c5421e<\/docid> <tplid>550<\/tplid><title><![CDATA[长这个B样,还挺有才的呢!!]]><\/title><url><![CDATA[http://mp.weixin.qq.com/s?__biz=MzAxNTA5MTc1NQ==&mid=207849616&idx=4&sn=69c751f921ae1de77c4f1a49e59dae86&3rd=MzA3MDU4NTYzMw==&scene=6#rd]]><\/url><title1><![CDATA[长这个B样,还挺有才的呢!!]]><\/title1><imglink><![CDATA[http://mmbiz.qpic.cn/mmbiz/Q2BricGyedbiayaFEAYvcOBuZogjw5XjrOa9xaFlBSw0UJgnPeo6wz7mG3Cu7JLJyuwZ6nDD9SYOI26UKTr26gxA/0?wx_fmt=jpeg]]><\/imglink><headimage><![CDATA[http://wx.qlogo.cn/mmhead/Q3auHgzwzM54VM2Uz6UcZ7nNvSOJ3YKy1ePibsB0mleUmCfa83V3w4w/0]]><\/headimage><sourcename><![CDATA[比惨]]><\/sourcename><content168><![CDATA[想吐槽生活?请点“阅读原文”]]><\/content168><site><![CDATA[http://laibican.com/story?yuanwenlianjie]]><\/site><isV><![CDATA[0]]><\/isV><openid><![CDATA[oIWsFtyI7gottu7fXSIwXIt2uHQw]]><\/openid><content><![CDATA[想吐槽生活?请点“阅读原文”]]><\/content><showurl><![CDATA[微信 - mp.weixin.qq.com]]><\/showurl><date><![CDATA[2015-7-9]]><\/date><pagesize><![CDATA[6k]]><\/pagesize> <lastModified>1436417365<\/lastModified><pagesize>7k<\/pagesize> <\/display><\/item><\/DOCUMENT>",
    "<?xml version=\"1.0\" encoding=\"gbk\"?><DOCUMENT><docid><\/docid><item> <key><![CDATA[http://mp.weixin.qq.com/]]><\/key><tplid><![CDATA[555]]><\/tplid><classid>11002601<\/classid> <display> <docid>ab735a258a90e8e1-6bee54fcbd896b2a-c91b7f1fcd6523c0bc010768558d9326<\/docid> <tplid>550<\/tplid><title><![CDATA[俩二货酒吧泡妞,牙都笑掉!]]><\/title><url><![CDATA[http://mp.weixin.qq.com/s?__biz=MzAxNTA5MTc1NQ==&mid=207849616&idx=8&sn=159246eceebbf1065e47a3d7fe3e1106&3rd=MzA3MDU4NTYzMw==&scene=6#rd]]><\/url><title1><![CDATA[俩二货酒吧泡妞,牙都笑掉!]]><\/title1><imglink><![CDATA[http://mmbiz.qpic.cn/mmbiz/Q2BricGyedbiayaFEAYvcOBuZogjw5XjrOuVVbfgHg1Jx3OiaxwQl4skHhW7icS8bt9V4qcxWpxauCTgP0oucqXasA/0?wx_fmt=jpeg]]><\/imglink><headimage><![CDATA[http://wx.qlogo.cn/mmhead/Q3auHgzwzM54VM2Uz6UcZ7nNvSOJ3YKy1ePibsB0mleUmCfa83V3w4w/0]]><\/headimage><sourcename><![CDATA[比惨]]><\/sourcename><content168><![CDATA[想吐槽生活?请点“阅读原文”]]><\/content168><site><![CDATA[http://laibican.com/story?yuanwenlianjie]]><\/site><isV><![CDATA[0]]><\/isV><openid><![CDATA[oIWsFtyI7gottu7fXSIwXIt2uHQw]]><\/openid><content><![CDATA[想吐槽生活?请点“阅读原文”]]><\/content><showurl><![CDATA[微信 - mp.weixin.qq.com]]><\/showurl><date><![CDATA[2015-7-9]]><\/date><pagesize><![CDATA[6k]]><\/pagesize> <lastModified>1436417365<\/lastModified><pagesize>7k<\/pagesize> <\/display><\/item><\/DOCUMENT>",
    "<?xml version=\"1.0\" encoding=\"gbk\"?><DOCUMENT><docid><\/docid><item> <key><![CDATA[http://mp.weixin.qq.com/]]><\/key><tplid><![CDATA[555]]><\/tplid><classid>11002601<\/classid> <display> <docid>ab735a258a90e8e1-6bee54fcbd896b2a-c39bdb5670b4b8690279abeb0310f20e<\/docid> <tplid>550<\/tplid><title><![CDATA[震撼全球的短片,改变千万人的价值观!]]><\/title><url><![CDATA[http://mp.weixin.qq.com/s?__biz=MzAxNTA5MTc1NQ==&mid=207849616&idx=7&sn=6b231c0b7dc38c82ed8f07b353910d37&3rd=MzA3MDU4NTYzMw==&scene=6#rd]]><\/url><title1><![CDATA[震撼全球的短片,改变千万人的价值观!]]><\/title1><imglink><![CDATA[http://mmbiz.qpic.cn/mmbiz/Q2BricGyedbiayaFEAYvcOBuZogjw5XjrOB5scGpvkHJOnGxk985ic8byrXQM1CgFl7vxFic1H6QUzmLww5a2IrKJA/0?wx_fmt=jpeg]]><\/imglink><headimage><![CDATA[http://wx.qlogo.cn/mmhead/Q3auHgzwzM54VM2Uz6UcZ7nNvSOJ3YKy1ePibsB0mleUmCfa83V3w4w/0]]><\/headimage><sourcename><![CDATA[比惨]]><\/sourcename><content168><![CDATA[往期精彩,请点“阅读原文”]]><\/content168><site><![CDATA[http://laibican.com/story?yuanwenlianjie]]><\/site><isV><![CDATA[0]]><\/isV><openid><![CDATA[oIWsFtyI7gottu7fXSIwXIt2uHQw]]><\/openid><content><![CDATA[往期精彩,请点“阅读原文”]]><\/content><showurl><![CDATA[微信 - mp.weixin.qq.com]]><\/showurl><date><![CDATA[2015-7-9]]><\/date><pagesize><![CDATA[6k]]><\/pagesize> <lastModified>1436417365<\/lastModified><pagesize>7k<\/pagesize> <\/display><\/item><\/DOCUMENT>",
    "<?xml version=\"1.0\" encoding=\"gbk\"?><DOCUMENT><docid><\/docid><item> <key><![CDATA[http://mp.weixin.qq.com/]]><\/key><tplid><![CDATA[555]]><\/tplid><classid>11002601<\/classid> <display> <docid>ab735a258a90e8e1-6bee54fcbd896b2a-8569048a4db284fcda10599f6a19c466<\/docid> <tplid>550<\/tplid><title><![CDATA[笑喷了!美女怀疑老公外面有人了]]><\/title><url><![CDATA[http://mp.weixin.qq.com/s?__biz=MzAxNTA5MTc1NQ==&mid=207849616&idx=2&sn=0419635fd6bf4f2e62de626becc7ec2f&3rd=MzA3MDU4NTYzMw==&scene=6#rd]]><\/url><title1><![CDATA[笑喷了!美女怀疑老公外面有人了]]><\/title1><imglink><![CDATA[http://mmbiz.qpic.cn/mmbiz/Q2BricGyedbiayaFEAYvcOBuZogjw5XjrOGrAAJEa6yy3R7BLYqU1BpEcQVCmjxF8KqG8BDIeCrub9Efib0umbEaw/0?wx_fmt=jpeg]]><\/imglink><headimage><![CDATA[http://wx.qlogo.cn/mmhead/Q3auHgzwzM54VM2Uz6UcZ7nNvSOJ3YKy1ePibsB0mleUmCfa83V3w4w/0]]><\/headimage><sourcename><![CDATA[比惨]]><\/sourcename><content168><![CDATA[想吐槽生活?请点“阅读原文”]]><\/content168><site><![CDATA[http://laibican.com/story?yuanwenlianjie]]><\/site><isV><![CDATA[0]]><\/isV><openid><![CDATA[oIWsFtyI7gottu7fXSIwXIt2uHQw]]><\/openid><content><![CDATA[想吐槽生活?请点“阅读原文”]]><\/content><showurl><![CDATA[微信 - mp.weixin.qq.com]]><\/showurl><date><![CDATA[2015-7-9]]><\/date><pagesize><![CDATA[6k]]><\/pagesize> <lastModified>1436417365<\/lastModified><pagesize>7k<\/pagesize> <\/display><\/item><\/DOCUMENT>",
    "<?xml version=\"1.0\" encoding=\"gbk\"?><DOCUMENT><docid><\/docid><item> <key><![CDATA[http://mp.weixin.qq.com/]]><\/key><tplid><![CDATA[555]]><\/tplid><classid>11002601<\/classid> <display> <docid>ab735a258a90e8e1-6bee54fcbd896b2a-9b761ce17019d200081a320e1be134f3<\/docid> <tplid>550<\/tplid><title><![CDATA[30年后的我们也会像他们一样吗?]]><\/title><url><![CDATA[http://mp.weixin.qq.com/s?__biz=MzAxNTA5MTc1NQ==&mid=207849616&idx=5&sn=7be099c2e5e99d92626e01040974151a&3rd=MzA3MDU4NTYzMw==&scene=6#rd]]><\/url><title1><![CDATA[30年后的我们也会像他们一样吗?]]><\/title1><imglink><![CDATA[http://mmbiz.qpic.cn/mmbiz/Q2BricGyedbiayaFEAYvcOBuZogjw5XjrOicQkut9VT81syQiaUI5R9ChQFcx0fpEaoXjV8wJyhkFxzbKpPGpOIUow/0?wx_fmt=jpeg]]><\/imglink><headimage><![CDATA[http://wx.qlogo.cn/mmhead/Q3auHgzwzM54VM2Uz6UcZ7nNvSOJ3YKy1ePibsB0mleUmCfa83V3w4w/0]]><\/headimage><sourcename><![CDATA[比惨]]><\/sourcename><content168><![CDATA[往期精彩,请点“阅读原文”]]><\/content168><site><![CDATA[http://laibican.com/story?yuanwenlianjie]]><\/site><isV><![CDATA[0]]><\/isV><openid><![CDATA[oIWsFtyI7gottu7fXSIwXIt2uHQw]]><\/openid><content><![CDATA[往期精彩,请点“阅读原文”]]><\/content><showurl><![CDATA[微信 - mp.weixin.qq.com]]><\/showurl><date><![CDATA[2015-7-9]]><\/date><pagesize><![CDATA[6k]]><\/pagesize> <lastModified>1436417365<\/lastModified><pagesize>7k<\/pagesize> <\/display><\/item><\/DOCUMENT>",
    "<?xml version=\"1.0\" encoding=\"gbk\"?><DOCUMENT><docid><\/docid><item> <key><![CDATA[http://mp.weixin.qq.com/]]><\/key><tplid><![CDATA[555]]><\/tplid><classid>11002601<\/classid> <display> <docid>ab735a258a90e8e1-6bee54fcbd896b2a-659cd35d2005f6161f8a27e2c44fbcac<\/docid> <tplid>550<\/tplid><title><![CDATA[用鱼钓的鱼,太大拉!]]><\/title><url><![CDATA[http://mp.weixin.qq.com/s?__biz=MzAxNTA5MTc1NQ==&mid=207849616&idx=3&sn=3f7d27c98e055171e7e9a4808f1dcdd6&3rd=MzA3MDU4NTYzMw==&scene=6#rd]]><\/url><title1><![CDATA[用鱼钓的鱼,太大拉!]]><\/title1><imglink><![CDATA[http://mmbiz.qpic.cn/mmbiz/Q2BricGyedbiayaFEAYvcOBuZogjw5XjrOk4jkslpQxPuTJBm4hxiapc0R99Etuh8VvfhaV4KutDtWApXX0AoQcOg/0?wx_fmt=jpeg]]><\/imglink><headimage><![CDATA[http://wx.qlogo.cn/mmhead/Q3auHgzwzM54VM2Uz6UcZ7nNvSOJ3YKy1ePibsB0mleUmCfa83V3w4w/0]]><\/headimage><sourcename><![CDATA[比惨]]><\/sourcename><content168><![CDATA[往期精彩,请点“阅读原文”]]><\/content168><site><![CDATA[http://laibican.com/story?yuanwenlianjie]]><\/site><isV><![CDATA[0]]><\/isV><openid><![CDATA[oIWsFtyI7gottu7fXSIwXIt2uHQw]]><\/openid><content><![CDATA[往期精彩,请点“阅读原文”]]><\/content><showurl><![CDATA[微信 - mp.weixin.qq.com]]><\/showurl><date><![CDATA[2015-7-9]]><\/date><pagesize><![CDATA[6k]]><\/pagesize> <lastModified>1436417365<\/lastModified><pagesize>7k<\/pagesize> <\/display><\/item><\/DOCUMENT>",
    "<?xml version=\"1.0\" encoding=\"gbk\"?><DOCUMENT><docid><\/docid><item> <key><![CDATA[http://mp.weixin.qq.com/]]><\/key><tplid><![CDATA[555]]><\/tplid><classid>11002601<\/classid> <display> <docid>ab735a258a90e8e1-6bee54fcbd896b2a-f9dd34fa880441ec154870f1ea161ef0<\/docid> <tplid>550<\/tplid><title><![CDATA[我的天哪!这是人吗?太刺激了!]]><\/title><url><![CDATA[http://mp.weixin.qq.com/s?__biz=MzAxNTA5MTc1NQ==&mid=207849616&idx=6&sn=aadd4c9193ea801a556275e899fa0e9d&3rd=MzA3MDU4NTYzMw==&scene=6#rd]]><\/url><title1><![CDATA[我的天哪!这是人吗?太刺激了!]]><\/title1><imglink><![CDATA[http://mmbiz.qpic.cn/mmbiz/Q2BricGyedbiayaFEAYvcOBuZogjw5XjrO1H7Px6wKjy5eVTKTLF4oyduicBqDj0IOjVVPaZH9UAb5k4CwicRianAGw/0?wx_fmt=jpeg]]><\/imglink><headimage><![CDATA[http://wx.qlogo.cn/mmhead/Q3auHgzwzM54VM2Uz6UcZ7nNvSOJ3YKy1ePibsB0mleUmCfa83V3w4w/0]]><\/headimage><sourcename><![CDATA[比惨]]><\/sourcename><content168><![CDATA[想吐槽生活?请点“阅读原文”]]><\/content168><site><![CDATA[http://laibican.com/story?yuanwenlianjie]]><\/site><isV><![CDATA[0]]><\/isV><openid><![CDATA[oIWsFtyI7gottu7fXSIwXIt2uHQw]]><\/openid><content><![CDATA[想吐槽生活?请点“阅读原文”]]><\/content><showurl><![CDATA[微信 - mp.weixin.qq.com]]><\/showurl><date><![CDATA[2015-7-9]]><\/date><pagesize><![CDATA[6k]]><\/pagesize> <lastModified>1436417365<\/lastModified><pagesize>7k<\/pagesize> <\/display><\/item><\/DOCUMENT>",
    "<?xml version=\"1.0\" encoding=\"gbk\"?><DOCUMENT><docid><\/docid><item> <key><![CDATA[http://mp.weixin.qq.com/]]><\/key><tplid><![CDATA[555]]><\/tplid><classid>11002601<\/classid> <display> <docid>ab735a258a90e8e1-6bee54fcbd896b2a-372a220beda71e951902e6dad54209a6<\/docid> <tplid>550<\/tplid><title><![CDATA[13岁的小姑娘,又一个邓丽君!]]><\/title><url><![CDATA[http://mp.weixin.qq.com/s?__biz=MzAxNTA5MTc1NQ==&mid=207849616&idx=1&sn=9ad12a85e2d4bb9d71224558aca6425a&3rd=MzA3MDU4NTYzMw==&scene=6#rd]]><\/url><title1><![CDATA[13岁的小姑娘,又一个邓丽君!]]><\/title1><imglink><![CDATA[http://mmbiz.qpic.cn/mmbiz/Q2BricGyedbiayaFEAYvcOBuZogjw5XjrOldDQBK9TJuDzPmcm7xgRTy8dydCiaFx4OvMlicUicibn7a7flObF0gQP6g/0?wx_fmt=jpeg]]><\/imglink><headimage><![CDATA[http://wx.qlogo.cn/mmhead/Q3auHgzwzM54VM2Uz6UcZ7nNvSOJ3YKy1ePibsB0mleUmCfa83V3w4w/0]]><\/headimage><sourcename><![CDATA[比惨]]><\/sourcename><content168><![CDATA[往期精彩,请点“阅读原文”]]><\/content168><site><![CDATA[http://laibican.com/story?yuanwenlianjie]]><\/site><isV><![CDATA[0]]><\/isV><openid><![CDATA[oIWsFtyI7gottu7fXSIwXIt2uHQw]]><\/openid><content><![CDATA[往期精彩,请点“阅读原文”]]><\/content><showurl><![CDATA[微信 - mp.weixin.qq.com]]><\/showurl><date><![CDATA[2015-7-9]]><\/date><pagesize><![CDATA[6k]]><\/pagesize> <lastModified>1436417366<\/lastModified><pagesize>7k<\/pagesize> <\/display><\/item><\/DOCUMENT>",
    "<?xml version=\"1.0\" encoding=\"gbk\"?><DOCUMENT><docid><\/docid><item> <key><![CDATA[http://mp.weixin.qq.com/]]><\/key><tplid><![CDATA[555]]><\/tplid><classid>11002601<\/classid> <display> <docid>ab735a258a90e8e1-6bee54fcbd896b2a-1389bebf497b4263a0654197c9ece50a<\/docid> <tplid>550<\/tplid><title><![CDATA[网友玩不腻的大哥别杀我]]><\/title><url><![CDATA[http://mp.weixin.qq.com/s?__biz=MzAxNTA5MTc1NQ==&mid=207818246&idx=8&sn=7344efe0f2e9678305ad4742a6441956&3rd=MzA3MDU4NTYzMw==&scene=6#rd]]><\/url><title1><![CDATA[网友玩不腻的大哥别杀我]]><\/title1><imglink><![CDATA[http://mmbiz.qpic.cn/mmbiz/Q2BricGyedbgicTXydmPs2HaRe9S8vKEdibicc0bV5OTWNSezx86cfXRgxY6TmHlezVxws1jznCiaFUdhgLZrtQkFwg/0?wx_fmt=jpeg]]><\/imglink><headimage><![CDATA[http://wx.qlogo.cn/mmhead/Q3auHgzwzM54VM2Uz6UcZ7nNvSOJ3YKy1ePibsB0mleUmCfa83V3w4w/0]]><\/headimage><sourcename><![CDATA[比惨]]><\/sourcename><content168><![CDATA[想吐槽生活?请点“阅读原文”]]><\/content168><site><![CDATA[http://laibican.com/story?yuanwenlianjie]]><\/site><isV><![CDATA[0]]><\/isV><openid><![CDATA[oIWsFtyI7gottu7fXSIwXIt2uHQw]]><\/openid><content><![CDATA[想吐槽生活?请点“阅读原文”]]><\/content><showurl><![CDATA[微信 - mp.weixin.qq.com]]><\/showurl><date><![CDATA[2015-7-8]]><\/date><pagesize><![CDATA[6k]]><\/pagesize> <lastModified>1436329190<\/lastModified><pagesize>7k<\/pagesize> <\/display><\/item><\/DOCUMENT>",
    "<?xml version=\"1.0\" encoding=\"gbk\"?><DOCUMENT><docid><\/docid><item> <key><![CDATA[http://mp.weixin.qq.com/]]><\/key><tplid><![CDATA[555]]><\/tplid><classid>11002601<\/classid> <display> <docid>ab735a258a90e8e1-6bee54fcbd896b2a-025f9d1308c64a206f2577b9c3ae5fc7<\/docid> <tplid>550<\/tplid><title><![CDATA[如此惊艳的男女,太完美了!]]><\/title><url><![CDATA[http://mp.weixin.qq.com/s?__biz=MzAxNTA5MTc1NQ==&mid=207818246&idx=4&sn=53801002b79ffbf9aef50b99a4dabf72&3rd=MzA3MDU4NTYzMw==&scene=6#rd]]><\/url><title1><![CDATA[如此惊艳的男女,太完美了!]]><\/title1><imglink><![CDATA[http://mmbiz.qpic.cn/mmbiz/Q2BricGyedbgicTXydmPs2HaRe9S8vKEdib078pc5lqg09wC4NwP8Viaia5ia2eQzXS90j6koOYraT4sPF9ue061FOZg/0?wx_fmt=jpeg]]><\/imglink><headimage><![CDATA[http://wx.qlogo.cn/mmhead/Q3auHgzwzM54VM2Uz6UcZ7nNvSOJ3YKy1ePibsB0mleUmCfa83V3w4w/0]]><\/headimage><sourcename><![CDATA[比惨]]><\/sourcename><content168><![CDATA[想吐槽生活?请点“阅读原文”]]><\/content168><site><![CDATA[http://laibican.com/story?yuanwenlianjie]]><\/site><isV><![CDATA[0]]><\/isV><openid><![CDATA[oIWsFtyI7gottu7fXSIwXIt2uHQw]]><\/openid><content><![CDATA[想吐槽生活?请点“阅读原文”]]><\/content><showurl><![CDATA[微信 - mp.weixin.qq.com]]><\/showurl><date><![CDATA[2015-7-8]]><\/date><pagesize><![CDATA[6k]]><\/pagesize> <lastModified>1436329190<\/lastModified><pagesize>7k<\/pagesize> <\/display><\/item><\/DOCUMENT>"
  ]
}