{
  "totalItems": 100,
  "totalPages": 10,
  "page": 2,
  "items": [
    "<?xml version=\"1.0\" encoding=\"gbk\"?><DOCUMENT><docid><\/docid><item> <key><![CDATA[http://mp.weixin.qq.com/]]><\/key><tplid><![CDATA[555]]><\/tplid><classid>11002601<\/classid> <display> <docid>ab735a258a90e8e1-6bee54fcbd896b2a-c4dc32f86272525f20bfccd2db4597bc<\/docid> <tplid>550<\/tplid><title><![CDATA[【系列活动】今日免费赠书《模仿的技术》!]]><\/title><url><![CDATA[http://mp.weixin.qq.com/s?__biz=MzA5OTQ0NTExNA==&mid=203100593&idx=3&sn=06c84d08375d9be9e2fcb21c855ef84d&3rd=MzA3MDU4NTYzMw==&scene=6#rd]]><\/url><title1><![CDATA[【系列活动】今日免费赠书《模仿的技术》!]]><\/title1><imglink><![CDATA[http://mmbiz.qpic.cn/mmbiz/Rft8OymXWUCdo47ALWfbPR48tNOeZ3lMYwiakvicS9kU11RjZfhSReUpQOQZoqjzdicpB4DX42XjdzbsUF7LDVrZw/0]]><\/imglink><headimage><![CDATA[http://wx.qlogo.cn/mmhead/Q3auHgzwzM66diaYibm8wQqSUBqHS7HyjTjGvaiaEz1Vh71EBicbZUWWJQ/0]]><\/headimage><sourcename><![CDATA[看准]]><\/sourcename><content168><![CDATA[读书是一个终身的学习过程,通过读书,我们可以收获知识、结识朋友、开阔视野,还能提高自我的层次.之前的【好书免费赠】活动反响特别热烈,小编接着推出2015年第一波赠书福利!★参与方法:1、搜索并关注【看准】微信(微信号:kanzhunwang)2、在【看准】微信内回复“ 模仿...]]><\/content168><site><![CDATA[http://www.sojump.com/jq/4371329.aspx]]><\/site><isV><![CDATA[1]]><\/isV><openid><![CDATA[oIWsFt0qVmWAXC1I7kvuohAiXBGE]]><\/openid><content><![CDATA[读书是一个终身的学习过程,通过读书,我们可以收获知识、结识朋友、开阔视野,还能提高自我的层次.之前的【好书免费赠】活动...]]><\/content><showurl><![CDATA[微信 - mp.weixin.qq.com]]><\/showurl><date><![CDATA[2015-1-12]]><\/date><pagesize><![CDATA[35k]]><\/pagesize> <lastModified>1421068823<\/lastModified><pagesize>36k<\/pagesize> <\/display><\/item><\/DOCUMENT>",
    "<?xml version=\"1.0\" encoding=\"gbk\"?><DOCUMENT><docid><\/docid><item> <key><![CDATA[http://mp.weixin.qq.com/]]><\/key><tplid><![CDATA[555]]><\/tplid><classid>11002601<\/classid> <display> <docid>ab735a258a90e8e1-6bee54fcbd896b2a-cc4cfa20eb7c718c68c66258bfe4c2cb<\/docid> <tplid>550<\/tplid><title><![CDATA[【系列活动】今日免费赠书《零秒思考》!]]><\/title><url><![CDATA[http://mp.weixin.qq.com/s?__biz=MzA5OTQ0NTExNA==&mid=203010401&idx=2&sn=4614ddd06af43e05f1cad24037e910da&3rd=MzA3MDU4NTYzMw==&scene=6#rd]]><\/url><title1><![CDATA[【系列活动】今日免费赠书《零秒思考》!]]><\/title1><imglink><![CDATA[http://mmbiz.qpic.cn/mmbiz/Rft8OymXWUD6JIOws4EiceAoZibTWK7N76W6N7Eg1gDhBy6Lfq8o4xibNqhuCyzhkDe0a4trMymfeoAnwuwc7teow/0]]><\/imglink><headimage><![CDATA[http://wx.qlogo.cn/mmhead/Q3auHgzwzM66diaYibm8wQqSUBqHS7HyjTjGvaiaEz1Vh71EBicbZUWWJQ/0]]><\/headimage><sourcename><![CDATA[看准]]><\/sourcename><content168><![CDATA[高薪者若不学习,无需5年就会变成低薪,大学毕业4年后知识便会落伍;知识的折旧率每年都在80%左右.防止折旧的方法只有一个:终身学习! 还好大家都很爱阅读,之前的【好书免费赠】活动反响特别热烈,小编接着推出2015年第一波赠书福利!不多说了!大家往下看!★参与方法:1、...]]><\/content168><site><![CDATA[http://m.kanzhun.com/activity/tell/index/?sid=wx-menu-tell#rd&sukey=fd39034cdd3ad74335cce1fe189d5d27578cc1cb81e57025b9184f107c79848864a2b577223dc2cf5790be7c1a5f4c43]]><\/site><isV><![CDATA[1]]><\/isV><openid><![CDATA[oIWsFt0qVmWAXC1I7kvuohAiXBGE]]><\/openid><content><![CDATA[高薪者若不学习,无需5年就会变成低薪,大学毕业4年后知识便会落伍;知识的折旧率每年都在80%左右.防止折旧的方法只有一个:...]]><\/content><showurl><![CDATA[微信 - mp.weixin.qq.com]]><\/showurl><date><![CDATA[2015-1-8]]><\/date><pagesize><![CDATA[39k]]><\/pagesize> <lastModified>1420722447<\/lastModified><pagesize>40k<\/pagesize> <\/display><\/item><\/DOCUMENT>",
    "<?xml version=\"1.0\" encoding=\"gbk\"?><DOCUMENT><docid><\/docid><item> <key><![CDATA[http://mp.weixin.qq.com/]]><\/key><tplid><![CDATA[555]]><\/tplid><classid>11002601<\/classid> <display> <docid>ab735a258a90e8e1-6bee54fcbd896b2a-3b3650d3b94d7d2d46973bd1e76c83eb<\/docid> <tplid>550<\/tplid><title><![CDATA[用数据说话:什么样的程序员最抢手、涨薪最多?]]><\/title><url><![CDATA[http://mp.weixin.qq.com/s?__biz=MzA5OTQ0NTExNA==&mid=203010401&idx=1&sn=97bf905367f100593959b60277f4834f&3rd=MzA3MDU4NTYzMw==&scene=6#rd]]><\/url><title1><![CDATA[用数据说话:什么样的程序员最抢手、涨薪最多?]]><\/title1><imglink><![CDATA[http://mmbiz.qpic.cn/mmbiz/Rft8OymXWUD6JIOws4EiceAoZibTWK7N76KjpxEqHtD5YjxGRiaicgePs7jfI9mmoHd8ERsmePEJv3BSjDQ1iafsGvQ/0]]><\/imglink><headimage><![CDATA[http://wx.qlogo.cn/mmhead/Q3auHgzwzM66diaYibm8wQqSUBqHS7HyjTjGvaiaEz1Vh71EBicbZUWWJQ/0]]><\/headimage><sourcename><![CDATA[看准]]><\/sourcename><content168><![CDATA[今天,小编用数据进行分析与整理,跟大家分享一下:怎样的程序员最抢手?我们分为两点探讨,首先,我们来看影响程序员涨薪的因素.一、什么样的程序员涨薪最多安卓、iOS、Web前端薪资涨幅都较其他语言要高.对单个程序员来说,想要获得较高的薪资涨幅,选定热门的语言与工作地...]]><\/content168><site><![CDATA[http://m.kanzhun.com/activity/tell/index/?sid=wx-menu-tell#rd&sukey=fd39034cdd3ad74335cce1fe189d5d27578cc1cb81e57025b9184f107c79848864a2b577223dc2cf5790be7c1a5f4c43]]><\/site><isV><![CDATA[1]]><\/isV><openid><![CDATA[oIWsFt0qVmWAXC1I7kvuohAiXBGE]]><\/openid><content><![CDATA[今天,小编用数据进行分析与整理,跟大家分享一下:怎样的程序员最抢手?我们分为两点探讨,首先,我们来看影响程序员涨薪的因...]]><\/content><showurl><![CDATA[微信 - mp.weixin.qq.com]]><\/showurl><date><![CDATA[2015-1-8]]><\/date><pagesize><![CDATA[75k]]><\/pagesize> <lastModified>1420722448<\/lastModified><pagesize>76k<\/pagesize> <\/display><\/item><\/DOCUMENT>",
    "<?xml version=\"1.0\" encoding=\"gbk\"?><DOCUMENT><docid><\/docid><item> <key><![CDATA[http://mp.weixin.qq.com/]]><\/key><tplid><![CDATA[555]]><\/tplid><classid>11002601<\/classid> <display> <docid>ab735a258a90e8e1-6bee54fcbd896b2a-0cd599f879b63125141b66196b42af36<\/docid> <tplid>550<\/tplid><title><![CDATA[【北京公积金新政策】一张图看懂工资单]]><\/title><url><![CDATA[http://mp.weixin.qq.com/s?__biz=MzA5OTQ0NTExNA==&mid=202957874&idx=1&sn=120efa5771dde2c21901f66aef258a92&3rd=MzA3MDU4NTYzMw==&scene=6#rd]]><\/url><title1><![CDATA[【北京公积金新政策】一张图看懂工资单]]><\/title1><imglink><![CDATA[http://mmbiz.qpic.cn/mmbiz/Rft8OymXWUAs77icteX2bzb7t8z9R2icF9a1wQib3WseLaRP18wFnMBEkRBeCbLMeXR4RGeTSutiaopULfgavaT1xQ/0]]><\/imglink><headimage><![CDATA[http://wx.qlogo.cn/mmhead/Q3auHgzwzM66diaYibm8wQqSUBqHS7HyjTjGvaiaEz1Vh71EBicbZUWWJQ/0]]><\/headimage><sourcename><![CDATA[看准]]><\/sourcename><content168><![CDATA[北京市管、国管住房公积金中心先后发布通知,1月1日起,购买政策性住房或套型建筑面积在90平方米及以下的首套自住住房,贷款最高额度由80万元升至120万元.这意味着将在诸多方面惠及刚需购房者.最高额度提高至120万后,大部分刚需购房者都可以选择公积金贷款.粗略计算,基准...]]><\/content168><site><![CDATA[http://m.kanzhun.com/activity/tell/index/?sid=wx-menu-tell]]><\/site><isV><![CDATA[1]]><\/isV><openid><![CDATA[oIWsFt0qVmWAXC1I7kvuohAiXBGE]]><\/openid><content><![CDATA[北京市管、国管住房公积金中心先后发布通知,1月1日起,购买政策性住房或套型建筑面积在90平方米及以下的首套自住住房,贷款最...]]><\/content><showurl><![CDATA[微信 - mp.weixin.qq.com]]><\/showurl><date><![CDATA[2015-1-6]]><\/date><pagesize><![CDATA[19k]]><\/pagesize> <lastModified>1420551995<\/lastModified><pagesize>20k<\/pagesize> <\/display><\/item><\/DOCUMENT>",
    "<?xml version=\"1.0\" encoding=\"gbk\"?><DOCUMENT><docid><\/docid><item> <key><![CDATA[http://mp.weixin.qq.com/]]><\/key><tplid><![CDATA[555]]><\/tplid><classid>11002601<\/classid> <display> <docid>ab735a258a90e8e1-6bee54fcbd896b2a-8285eb1983813d5eeaef8c78d5e7f171<\/docid> <tplid>550<\/tplid><title><![CDATA[【福利】2014年调查报告:揭秘员工最爱福利]]><\/title><url><![CDATA[http://mp.weixin.qq.com/s?__biz=MzA5OTQ0NTExNA==&mid=202903313&idx=1&sn=8121d123ab7837399c55c081305e0e89&3rd=MzA3MDU4NTYzMw==&scene=6#rd]]><\/url><title1><![CDATA[【福利】2014年调查报告:揭秘员工最爱福利]]><\/title1><imglink><![CDATA[http://mmbiz.qpic.cn/mmbiz/Rft8OymXWUDOY6kOIVzicNibO8Y8Xj0npL3K4QYK4BuqxLniaG4prAhTL06niazz4ZHuUGe14BCbNibcqyiaEjfTIlMw/0]]><\/imglink><headimage><![CDATA[http://wx.qlogo.cn/mmhead/Q3auHgzwzM66diaYibm8wQqSUBqHS7HyjTjGvaiaEz1Vh71EBicbZUWWJQ/0]]><\/headimage><sourcename><![CDATA[看准]]><\/sourcename><content168><![CDATA[2014年中小企业聘用指数调查问卷,围绕着公司现有福利、员工对福利的喜好,以及福利满意度与效果展开了调查,让我们来看看结果吧.“现有福利TOP20”数据统计表明,在本次调研所关注的81种福利中,目前企业为员工发放的福利TOP20如下图(点击图片查看大图):在TOP20中,文...]]><\/content168><site><![CDATA[http://m.kanzhun.com/activity/celebrate/index/?id=54&ka=top1#rd&sukey=fd39034cdd3ad743ab3891679f4c02565264b4c3ebbf92daf4001c36ccd66bd1b731d87a47eb4dbed88b6680e700655e]]><\/site><isV><![CDATA[1]]><\/isV><openid><![CDATA[oIWsFt0qVmWAXC1I7kvuohAiXBGE]]><\/openid><content><![CDATA[2014年中小企业聘用指数调查问卷,围绕着公司现有福利、员工对福利的喜好,以及福利满意度与效果展开了调查,让我们来看看结果...]]><\/content><showurl><![CDATA[微信 - mp.weixin.qq.com]]><\/showurl><date><![CDATA[2015-1-4]]><\/date><pagesize><![CDATA[31k]]><\/pagesize> <lastModified>1420378206<\/lastModified><pagesize>32k<\/pagesize> <\/display><\/item><\/DOCUMENT>",
    "<?xml version=\"1.0\" encoding=\"gbk\"?><DOCUMENT><docid><\/docid><item> <key><![CDATA[http://mp.weixin.qq.com/]]><\/key><tplid><![CDATA[555]]><\/tplid><classid>11002601<\/classid> <display> <docid>ab735a258a90e8e1-6bee54fcbd896b2a-bda26a70c943bcdffa48260be36e78ec<\/docid> <tplid>550<\/tplid><title><![CDATA[你每天去上班的真实理由,句句戳到心坎里]]><\/title><url><![CDATA[http://mp.weixin.qq.com/s?__biz=MzA5OTQ0NTExNA==&mid=202903313&idx=2&sn=eee1ec507ac12cfa46e547592abbcfde&3rd=MzA3MDU4NTYzMw==&scene=6#rd]]><\/url><title1><![CDATA[你每天去上班的真实理由,句句戳到心坎里]]><\/title1><imglink><![CDATA[http://mmbiz.qpic.cn/mmbiz/Rft8OymXWUDOY6kOIVzicNibO8Y8Xj0npL94CHPIAErt75NYQjFoKmnkiaQc4A9qiaBpPqKGTVNSevEdVAtqxepmUQ/0]]><\/imglink><headimage><![CDATA[http://wx.qlogo.cn/mmhead/Q3auHgzwzM66diaYibm8wQqSUBqHS7HyjTjGvaiaEz1Vh71EBicbZUWWJQ/0]]><\/headimage><sourcename><![CDATA[看准]]><\/sourcename><content168><![CDATA[元旦假期已经结束啦!在这个什么都涨价、只有工资不涨的日子里,是什么精神动力鼓舞着大家每天按时上班呢?看看小编的分析,精辟不?1、因为你需要找人讨论昨晚的电视节目.2、因为办公室是八卦的最佳场所,编剧、导演、演员、批评家都在一起,熟悉又神秘,还可以相互串演角色....]]><\/content168><site><![CDATA[http://m.kanzhun.com/activity/celebrate/index/?id=54&ka=top1#rd&sukey=fd39034cdd3ad743ab3891679f4c02565264b4c3ebbf92daf4001c36ccd66bd1b731d87a47eb4dbed88b6680e700655e]]><\/site><isV><![CDATA[1]]><\/isV><openid><![CDATA[oIWsFt0qVmWAXC1I7kvuohAiXBGE]]><\/openid><content><![CDATA[元旦假期已经结束啦!在这个什么都涨价、只有工资不涨的日子里,是什么精神动力鼓舞着大家每天按时上班呢?看看小编的分析,精...]]><\/content><showurl><![CDATA[微信 - mp.weixin.qq.com]]><\/showurl><date><![CDATA[2015-1-4]]><\/date><pagesize><![CDATA[54k]]><\/pagesize> <lastModified>1420378205<\/lastModified><pagesize>55k<\/pagesize> <\/display><\/item><\/DOCUMENT>",
    "<?xml version=\"1.0\" encoding=\"gbk\"?><DOCUMENT><docid><\/docid><item> <key><![CDATA[http://mp.weixin.qq.com/]]><\/key><tplid><![CDATA[555]]><\/tplid><classid>11002601<\/classid> <display> <docid>ab735a258a90e8e1-6bee54fcbd896b2a-6bad4bba9da82794eb564eb43ed8d25d<\/docid> <tplid>550<\/tplid><title><![CDATA[【回顾】2014关键词!看准帮你上头条!]]><\/title><url><![CDATA[http://mp.weixin.qq.com/s?__biz=MzA5OTQ0NTExNA==&mid=202835902&idx=1&sn=6f04a4ed63ef052c40a64580f889f577&3rd=MzA3MDU4NTYzMw==&scene=6#rd]]><\/url><title1><![CDATA[【回顾】2014关键词!看准帮你上头条!]]><\/title1><imglink><![CDATA[http://mmbiz.qpic.cn/mmbiz/Rft8OymXWUAM2dqGGody96gutvbNKichXicmP6iakic1z2vMiaxBIvpEb84KUb33ooFUW6F1ugC3FtKKV2Gd34zia0pw/0]]><\/imglink><headimage><![CDATA[http://wx.qlogo.cn/mmhead/Q3auHgzwzM66diaYibm8wQqSUBqHS7HyjTjGvaiaEz1Vh71EBicbZUWWJQ/0]]><\/headimage><sourcename><![CDATA[看准]]><\/sourcename><content168><![CDATA[元旦刚过,大家在开始2015年全新的生活时,也别忘记抓住2014年的尾巴,回顾这一年的得到与失去、遇见与错过,让【看准】帮大家上一回2014年度人物头条,就是有钱任性!★点击【阅读原文】,输入你的关键词,订制你的2014年个人专属海报.]]><\/content168><site><![CDATA[http://m.kanzhun.com/activity/baibai/index/]]><\/site><isV><![CDATA[1]]><\/isV><openid><![CDATA[oIWsFt0qVmWAXC1I7kvuohAiXBGE]]><\/openid><content><![CDATA[元旦刚过,大家在开始2015年全新的生活时,也别忘记抓住2014年的尾巴,回顾这一年的得到与失去、遇见与错过,让【看准】帮大...]]><\/content><showurl><![CDATA[微信 - mp.weixin.qq.com]]><\/showurl><date><![CDATA[2015-1-1]]><\/date><pagesize><![CDATA[11k]]><\/pagesize> <lastModified>1420120415<\/lastModified><pagesize>12k<\/pagesize> <\/display><\/item><\/DOCUMENT>",
    "<?xml version=\"1.0\" encoding=\"gbk\"?><DOCUMENT><docid><\/docid><item> <key><![CDATA[http://mp.weixin.qq.com/]]><\/key><tplid><![CDATA[555]]><\/tplid><classid>11002601<\/classid> <display> <docid>ab735a258a90e8e1-6bee54fcbd896b2a-faf5d8368a8c4aa3d65632b8bdba1a33<\/docid> <tplid>550<\/tplid><title><![CDATA[【曝曝小人】史上逼格最高的拜年工具!不来一发嘛?]]><\/title><url><![CDATA[http://mp.weixin.qq.com/s?__biz=MzA5OTQ0NTExNA==&mid=202815643&idx=1&sn=3bf308795cde2029ff0ce4e5bd7004b2&3rd=MzA3MDU4NTYzMw==&scene=6#rd]]><\/url><title1><![CDATA[【曝曝小人】史上逼格最高的拜年工具!不来一发嘛?]]><\/title1><imglink><![CDATA[http://mmbiz.qpic.cn/mmbiz/Rft8OymXWUCbfM5nVUYl7ojuh28F5iaZv4urwcx28ibEhVcbF3h5WrlBgN01sVbc7oqSVutVUIPn0BjTqKtibicDYg/0]]><\/imglink><headimage><![CDATA[http://wx.qlogo.cn/mmhead/Q3auHgzwzM66diaYibm8wQqSUBqHS7HyjTjGvaiaEz1Vh71EBicbZUWWJQ/0]]><\/headimage><sourcename><![CDATA[看准]]><\/sourcename><content168><![CDATA[想加薪不敢当面和老板说?想表白会羞涩不敢开口?想拜新年任性一回但是脑洞太小想不出新意来?曝曝小人来帮你!喊出你心中的那一点小秘密!当2015年最给力的小白领!做人嘛!最重要的是开心啦!约吗!★点击【阅读原文】,输入你最想说的话!萌萌的曝曝小人帮你来呐喊!]]><\/content168><site><![CDATA[http://mp.weixin.qq.com/s?__biz=MzA5OTQ0NTExNA==&mid=202801229&idx=1&sn=5bd5e6bfe6e7841792dc7d5ebf0dd1af#rd]]><\/site><isV><![CDATA[1]]><\/isV><openid><![CDATA[oIWsFt0qVmWAXC1I7kvuohAiXBGE]]><\/openid><content><![CDATA[想加薪不敢当面和老板说?想表白会羞涩不敢开口?想拜新年任性一回但是脑洞太小想不出新意来?曝曝小人来帮你!喊出你心中的那...]]><\/content><showurl><![CDATA[微信 - mp.weixin.qq.com]]><\/showurl><date><![CDATA[2014-12-31]]><\/date><pagesize><![CDATA[12k]]><\/pagesize> <lastModified>1420033251<\/lastModified><pagesize>13k<\/pagesize> <\/display><\/item><\/DOCUMENT>",
    "<?xml version=\"1.0\" encoding=\"gbk\"?><DOCUMENT><docid><\/docid><item> <key><![CDATA[http://mp.weixin.qq.com/]]><\/key><tplid><![CDATA[555]]><\/tplid><classid>11002601<\/classid> <display> <docid>ab735a258a90e8e1-6bee54fcbd896b2a-5f5258c14187c891439af64a6d6981cd<\/docid> <tplid>550<\/tplid><title><![CDATA[2014年员工眼中的 TOP10 地产企业]]><\/title><url><![CDATA[http://mp.weixin.qq.com/s?__biz=MzA5OTQ0NTExNA==&mid=202788742&idx=1&sn=35183427c53d3465f8d41d16131a5a05&3rd=MzA3MDU4NTYzMw==&scene=6#rd]]><\/url><title1><![CDATA[2014年员工眼中的 TOP10 地产企业]]><\/title1><imglink><![CDATA[http://mmbiz.qpic.cn/mmbiz/Rft8OymXWUCIO1WoWKsRuY5Zibh5QNrGEIHL0eZ0Vfa1rOhibWcvqvOttGaxEULYTM6DNbsw7bw5v29gwVywOClw/0]]><\/imglink><headimage><![CDATA[http://wx.qlogo.cn/mmhead/Q3auHgzwzM66diaYibm8wQqSUBqHS7HyjTjGvaiaEz1Vh71EBicbZUWWJQ/0]]><\/headimage><sourcename><![CDATA[看准]]><\/sourcename><content168><![CDATA[2014年,中国房地产行业依旧紧扣着国人的心弦.在纷扰背后,四万余家房地产开发法人单位中有着数百万员工的声音,不应被忽视.员工作为地产企业的一份子,直接感受着地产行业的“水深火热”,体会着地产公司的“人情冷暖”.(以下数据由看准网提供)1、2014 Top10地产企业:销...]]><\/content168><site><![CDATA[http://m.kanzhun.com/activity/celebrate/index/?id=54&ka=top1#rd&sukey=fd39034cdd3ad743ab3891679f4c02565264b4c3ebbf92daf4001c36ccd66bd1b731d87a47eb4dbed88b6680e700655e]]><\/site><isV><![CDATA[1]]><\/isV><openid><![CDATA[oIWsFt0qVmWAXC1I7kvuohAiXBGE]]><\/openid><content><![CDATA[2014年,中国房地产行业依旧紧扣着国人的心弦.在纷扰背后,四万余家房地产开发法人单位中有着数百万员工的声音,不应被忽视....]]><\/content><showurl><![CDATA[微信 - mp.weixin.qq.com]]><\/showurl><date><![CDATA[2014-12-30]]><\/date><pagesize><![CDATA[29k]]><\/pagesize> <lastModified>1419945855<\/lastModified><pagesize>30k<\/pagesize> <\/display><\/item><\/DOCUMENT>",
    "<?xml version=\"1.0\" encoding=\"gbk\"?><DOCUMENT><docid><\/docid><item> <key><![CDATA[http://mp.weixin.qq.com/]]><\/key><tplid><![CDATA[555]]><\/tplid><classid>11002601<\/classid> <display> <docid>ab735a258a90e8e1-6bee54fcbd896b2a-7c2c42c7250d2c7217bff7ee6947fe4a<\/docid> <tplid>550<\/tplid><title><![CDATA[【回顾】2014刷爆你朋友圈的11大事件]]><\/title><url><![CDATA[http://mp.weixin.qq.com/s?__biz=MzA5OTQ0NTExNA==&mid=202788742&idx=2&sn=ee49ff8941e7b4863bf38cd2c65ae439&3rd=MzA3MDU4NTYzMw==&scene=6#rd]]><\/url><title1><![CDATA[【回顾】2014刷爆你朋友圈的11大事件]]><\/title1><imglink><![CDATA[http://mmbiz.qpic.cn/mmbiz/Rft8OymXWUCIO1WoWKsRuY5Zibh5QNrGEY79b5u7c5zz0iaicOfojJHSqLLKxQVmfibX7icyj4wdAySETydbv4DwYfw/0]]><\/imglink><headimage><![CDATA[http://wx.qlogo.cn/mmhead/Q3auHgzwzM66diaYibm8wQqSUBqHS7HyjTjGvaiaEz1Vh71EBicbZUWWJQ/0]]><\/headimage><sourcename><![CDATA[看准]]><\/sourcename><content168><![CDATA[2014年是微信朋友圈活力四射的一年,你被下面这11件网络事件刷屏了吗?1、微信抢红包入选理由:简单粗暴,有钱就是任性在2014年春节期间,微信红包迅速流传开来.虽然存在着安全隐患等问题,但这也丝毫没有影响用户们“发钱”“抢钱”的热情,从除夕至大年初一时,参与抢微信红...]]><\/content168><site><![CDATA[http://m.kanzhun.com/activity/celebrate/index/?id=54&ka=top1#rd&sukey=fd39034cdd3ad743ab3891679f4c02565264b4c3ebbf92daf4001c36ccd66bd1b731d87a47eb4dbed88b6680e700655e]]><\/site><isV><![CDATA[1]]><\/isV><openid><![CDATA[oIWsFt0qVmWAXC1I7kvuohAiXBGE]]><\/openid><content><![CDATA[2014年是微信朋友圈活力四射的一年,你被下面这11件网络事件刷屏了吗?1、微信抢红包入选理由:简单粗暴,有钱就是任性在2014...]]><\/content><showurl><![CDATA[微信 - mp.weixin.qq.com]]><\/showurl><date><![CDATA[2014-12-30]]><\/date><pagesize><![CDATA[47k]]><\/pagesize> <lastModified>1419945854<\/lastModified><pagesize>48k<\/pagesize> <\/display><\/item><\/DOCUMENT>"
  ]
}